0
2147483647
-2147483648
733500415
205226952
133450792
1646852342
1057284661
420766074
134623412
464777010
733575295
345029468
660827782
1640712596
866778598
1786844985
422825779
1013743702
811969144
2063121220
291090198
763769161
567921465
1498895553
547060818
1362086987
826021
43722435
41675622
1274172628
479778789
797451024
613587819
1082813103
976447116
542404384
945325028
1604119493
261021966
1926297412
905389642
1759158548
470132671
26005988
643767571
858032319
506566276
341595361
475677307
1200189248
1067526937
1964564249
420956372
1519299001
801932798
209483784
208682628
2067850087
132730879
181176203
696981408
1025970231
669199965
951650241
353040161
947959411
321851294
1250538250
209359304
341434773
487209709
8966193
310617229
1930571836
731556911
1404264102
109910205
689540924
653584036
389055716
806948792
1845253072
1021577270
168706801
542486596
1518438123
387155810
660572932
174534541
381244332
461809089
758645312
446640062
1032235759
499138866
1329843103
633155125
126766591
574508453
1409146602
487938920
1856410218
9888134
300781028
515298897
1208373486
389635778
1157364103
654304662
2074513807
490005114
1157388646
52324408
1639032522
722322757
168695601
727996407
479431139
1044289051
128835671
482072385
577399387
941464034
1681584070
931390679
1213432446
119962006
2055729614
659975930
1820287768
834169111
1910703139
206184533
171575367
768848011
1022784513
785244266
1078339948
786834030
1763441770
820093363
1529894459
535078971
676750987
701478741
968200946
761835448
1010929212
910396549
572671399
199942874
1443294374
290338677
264857274
237057108
1457842944
691470845
1686177385
362605248
943284082
880648643
982538625
614855783
1566815770
164985383
416063282
1050373552
1801021484
482140589
1071993340
7726116
2039448372
222889256
2050307526
67534874
1745232503
1013883488
1173681421
383180547
1122950263
806974591
763699001
465569877
1672824470
526896125
1842379275
688621323
960549074
889023557
2091169843
450384353
2017024943
590899428
527353599
724421643
336333362
365190255
1730741549
557959340
411300361
557052655
1537004769
211491546
1512205256
697197064
1132337842
763944010
1797055822
733874348
1467898846
327103643
1210202182
354881657
761154974
904727357
1491576521
201362092
408930197
27962877
85835809
1073226434
57092962
316151343
2028965801
214966451
2109371220
830609014
11704272
27858113
1052588605
693132081
1325884
321136384
577515103
108185476
368662026
169911400
2093973891
446912770
2106517812
203883407
1027803177
754605044
852941324
658324233
611047898
153442890
1936320485
344187734
740189337
988663580
1264064977
20528778
611648888
8603867
1143146116
741793664
470177862
156058649
1289844823
810568371
1672188006
46377203
2094141289
230984376
1270500539
496071957
354067424
735728220
370833599
565427315
894192205
392029790
894954675
687852163
614464557
78751937
1306042097
656264751
366872204
538296272
2128304221
154278493
1570930885
576254641
1106247162
482714909
206777700
317486498
1750704536
228527982
448743212
334888918
1868278699
130555812
1479007284
1024926952
167153720
311441539
1249343788
869698552
1697489128
563803859
1473906365
612843114
313962047
43171769
2144459534
500426807
1041058278
59353501
1735729508
928482284
1550752804
68143539
281991649
243960905
2120212075
405573671
714134381
878931309
271625487
22641892
1735926194
721063875
1200325138
955717374
1243328833
284030567
1102695194
370782400
443857874
767953745
233188484
614081108
7012008
383570696
1467917201
1034896651
908768531
149053949
1073830334
899127627
1143503119
44895617
1209670450
581378324
1469533194
808546918
321094225
788797742
2094475715
132516662
754846318
673045231
1445373774
991408137
1910528925
403951791
1774731316
376437254
1701265829
846661312
972297143
415507578
1457578004
900694828
1182331955
47359374
62248301
360132080
536595103
880760999
789323645
1005499373
1030910003
251769952
40547020
577597042
1978089508
485893661
862050094
267647332
1692713867
16469324
1160477561
431604232
591198563
185954365
66572881
625506413
1314249905
941499546
894282270
1067249016
1172105918
44811654
715854367
678659981
618498944
163311949
1485438616
81729495
466771479
950397132
221625895
53180981
1804045171
420301407
328806965
410651074
212099346
811287172
997907591
354194431
664049127
508292104
1637544948
269751454
7191382
452934133
1878577713
1055073260
544439388
609772793
608709832
565748187
1394961612
837580425
91466536
326485933
1634421428
737160090
1343327189
702245432
916501470
102697214
369633984
786224856
1326412146
521739090
443243185
760435959
1039637433
349338795
1828234208
263452208
1823930364
252139966
2007472548
798621477
420811403
450416836
1839503683
596824801
1548728025
442672118
551511016
305982175
928745413
501176729
255600050
1025115583
889625075
292553676
160209896
51205765
476516953
880183760
232795211
620830347
56486614
960818444
529850244
54246405
706092796
995206055
1996509373
639817519
527082222
784908990
1738982476
170653717
2132911717
533942846
1072150409
388263678
68273613
501859427
48913344
862919031
1236134796
899427017
579440194
989146616
1950270306
151675698
1780875158
133158963
291291627
779097558
230579149
469962754
19653186
944504674
764962291
117355746
76176320
23568528
188946593
77699118
1861595618
402394463
1340669360
478855135
1081974856
402798072
384503560
700435450
47351002
285778709
1571787414
779356309
1551174149
894320685
2140504924
61494922
2020012835
1040280866
842283426
461681847
865668345
1023160741
194520138
725013486
835740761
181013543
1831372097
725467008
33359080
97613428
1064256274
542458976
807313914
214096373
1950024084
105144568
1693952921
1016089988
1319424964
564438917
1405349
885855968
1988491437
467475760
792467221
168397273
1811887491
860340139
154089307
607092466
1190821584
427916161
1161576422
816659410
1596506822
500628743
318349249
687884079
101238450
238904787
1585319769
730808940
2065770898
216830205
1594184284
911835860
2045164989
1008807892
346813884
41206901
1240042432
124234071
1673636818
272429211
536211530
917849657
424282272
69177824
2130470717
35902348
113082415
447492084
1894364644
1039959562
1058580759
699165935
54675012
142706686
719709469
119168590
74360203
171064272
1011724790
192494472
844380069
616357171
24904746
989600847
942952942
890292966
653078036
162013284
704450306
347038497
1251669254
1037761302
962219439
437124263
749377161
401898584
1510632716
775562853
340172737
82923900
1315010467
664401859
1809553647
1043257235
1402900425
557112201
219981585
234060121
48402191
806215533
455435684
341095134
743697105
56570426
702569098
709588153
1567297515
295115426
1504544262
182010079
581142412
91312281
725266659
531364645
318854946
151798637
297220788
760481618
236924277
386430568
52906551
444591839
988876496
876133920
1270243795
1063938125
120607321
432851033
799504961
442186275
1486938754
751564953
671147335
426316676
388813464
315441990
1517574814
3282025
676494201
1035555198
1902620917
60972928
716337507
196007794
1804133646
968601503
1993196775
24487807
1528836359
1028033254
1834623228
199994313
1048384947
755322224
1796765743
941592727
8869927
487253430
653529848
1023379750
1355486545
47889537
209383720
423573836
627518913
261415563
664637567
721317259
154626956
1044987312
1983072859
225111018
25683013
557715414
1226939018
632440672
649410860
857854293
358072640
415055823
309688163
1046870309
154489380
217897150
2000648795
620752004
2089378437
262795417
42127950
656863327
1094789290
232440482
759189733
603559494
1278737990
878599543
741572089
954384134
92788746
67418171
71259766
465431780
1700291669
326807648
492099420
700202871
1050419975
382458390
1672476383
1032262430
395176051
596684116
1026543023
531815971
490102130
1047411063
1356386898
887391597
988294804
192227740
1566320812
783614685
429571186
700482434
1189947297
855824199
678838047
135342865
81680081
1050567181
1155624637
984208523
1989232258
196466778
1276109611
855617359
827900828
599209463
1267825884
42906442
2082671053
589963725
349587651
669326079
439989708
300507127
639594858
241710122
1312774587
46336899
1494019874
923619605
904836518
75526596
352373077
753157240
2082321961
390728024
1426840311
947745292
1497791277
971611825
723856411
663494062
1299892434
439644259
1143739042
726025004
1162503273
1015583977
1388735502
713941168
1944780696
996451379
766468725
428096967
1475900321
525745841
1705004688
224811277
1066282684
141274132
1589930227
974800502
1483134368
379481001
583081047
424142905
792541985
166735947
770173715
1037306973
2130309107
718365193
21232042
146512090
1047186572
528473940
184840317
507318381
1719007016
754866148
409339553
244931066
17827814
95435561
181479371
555308191
47516944
304862313
310855528
957637201
1881035128
705941114
185668297
336376626
250275581
744683806
1640518780
3718010
1057953581
1009306101
1081309878
144563704
436141060
501396261
840291052
1037497668
759866067
168167809
1979100288
291636613
2057714492
479188088
1569895576
796590302
71234649
724271487
13499659
767436921
1816480253
693572911
1970421877
967521323
1428136978
58397701
1793856874
843778752
12864033
14023862
1114825415
776762607
258460913
67030572
426936100
277402833
1478305862
4174619
1967834469
380144668
861339339
1052872000
996649072
690969318
999125514
51558971
410464249
875798799
834812055
647957513
406042744
285740108
1247065165
466915097
838840380
298704078
2092034736
730880012
1686522778
551455380
1510498674
1000878858
1692273213
433993033
1650852113
261729985
392495009
229959898
78004125
573873407
1188819099
876830872
108590487
270451427
1346664464
520655622
447635189
149951171
148341958
834138178
721087043
318925214
976003671
630512906
1336776675
713386555
2088738625
15111281
2105396085
781627359
1997095451
362822175
2076283217
145240746
1941495779
336299840
1110145585
520247178
23577970
478223370
884952812
676120036
1794934288
1017126893
18808413
190889150
436429092
833059419
1304774498
634995104
1763840260
355307048
1213841664
545334032
1101034731
1573289
2082603684
8677547
2082777096
402898245
651021957
1053453014
1859663795
367389398
1956134949
230124585
999639738
0
-1
-2
-3
-4
-5
-6
-7
-8
-9
-10
-11
-12
-13
-14
-15
-16
-17
-18
-19
-20
-21
-22
-23
-24
-25
-26
-27
-28
-29
-30
-31
-32
-33
-34
-35
-36
-37
-38
-39
-40
-41
-42
-43
-44
-45
-46
-47
-48
-49
Hello0
Hello1
Hello2
Hello3
Hello4
Hello5
Hello6
Hello7
Hello8
Hello9
Hello10
Hello11
Hello12
Hello13
Hello14
Hello15
Hello16
Hello17
Hello18
Hello19
Hello20
Hello21
Hello22
Hello23
Hello24
Hello25
Hello26
Hello27
Hello28
Hello29
Hello30
Hello31
Hello32
Hello33
Hello34
Hello35
Hello36
Hello37
Hello38
Hello39
Hello40
Hello41
Hello42
Hello43
Hello44
Hello45
Hello46
Hello47
Hello48
Hello49
